[ 
	{
		"id":1,
		"vehicle_id":"UAX 21312",
		"vehicle_type_id":1,
		"summary_score":54,
		"summary_score_text":null,
		"rating_count":45

	},
	{
		"id":2,
		"vehicle_id":"UAX 12321",
		"vehicle_type_id":3,
		"summary_score":79,
		"summary_score_text":null,
		"rating_count":19

	},
	{
		"id":3,
		"vehicle_id":"UAX 56734",
		"vehicle_type_id":2,
		"summary_score":57,
		"summary_score_text":null,
		"rating_count":12

	},
	{
		"id":4,
		"vehicle_id":"UAX 68716",
		"vehicle_type_id":1,
		"summary_score":87,
		"summary_score_text":null,
		"rating_count":1

	},
	{
		"id":5,
		"vehicle_id":"UAX 90868",
		"vehicle_type_id":4,
		"summary_score":50,
		"summary_score_text":null,
		"rating_count":17

	},
	{
		"id":6,
		"vehicle_id":"UAX 821328",
		"vehicle_type_id":4,
		"summary_score":81,
		"summary_score_text":null,
		"rating_count":150

	},
	{
		"id":7,
		"vehicle_id":"UAX 921388",
		"vehicle_type_id":5,
		"summary_score":71,
		"summary_score_text":null,
		"rating_count":78

	},
	{
		"id":8,
		"vehicle_id":"UAX 21312",
		"vehicle_type_id":3,
		"summary_score":69,
		"summary_score_text":null,
		"rating_count":122

	},
	{
		"id":9,
		"vehicle_id":"UAX 323498",
		"vehicle_type_id":2,
		"summary_score":83,
		"summary_score_text":null,
		"rating_count":79

	},
	{
		"id":10,
		"vehicle_id":"UAX 123348",
		"vehicle_type_id":1,
		"summary_score":93,
		"summary_score_text":null,
		"rating_count":217

	},
	{
		"id":11,
		"vehicle_id":"UAX 019845",
		"vehicle_type_id":1,
		"summary_score":34,
		"summary_score_text":null,
		"rating_count":47

	},
	{
		"id":12,
		"vehicle_id":"UAX 81293",
		"vehicle_type_id":1,
		"summary_score":20,
		"summary_score_text":null,
		"rating_count":37

	},
	{
		"id":13,
		"vehicle_id":"UAX 13842",
		"vehicle_type_id":2,
		"summary_score":78,
		"summary_score_text":null,
		"rating_count":510

	},
	{
		"id":14,
		"vehicle_id":"UAX 93824",
		"vehicle_type_id":4,
		"summary_score":87,
		"summary_score_text":null,
		"rating_count":99

	},
	{
		"id":15,
		"vehicle_id":"UAX 01923",
		"vehicle_type_id":1,
		"summary_score":56,
		"summary_score_text":null,
		"rating_count":88

	},
	{
		"id":16,
		"vehicle_id":"UAX 77669",
		"vehicle_type_id":3,
		"summary_score":89,
		"summary_score_text":null,
		"rating_count":134

	},
	{
		"id":17,
		"vehicle_id":"UAX 89876",
		"vehicle_type_id":3,
		"summary_score":54,
		"summary_score_text":null,
		"rating_count":12

	}
]